^C:\USERS\171-362\SOURCE\REPOS\EKZ\EKZ\STDAFX.CPP
C:\USERS\171-362\SOURCE\REPOS\EKZ\EKZ\X64\DEBUG\EKZ.PCH
C:\USERS\171-362\SOURCE\REPOS\EKZ\EKZ\X64\DEBUG\VC141.PDB
C:\USERS\171-362\SOURCE\REPOS\EKZ\EKZ\X64\DEBUG\VC141.IDB
C:\USERS\171-362\SOURCE\REPOS\EKZ\EKZ\X64\DEBUG\STDAFX.OBJ
^C:\USERS\171-362\SOURCE\REPOS\EKZ\EKZ\EKZ.CPP
C:\USERS\171-362\SOURCE\REPOS\EKZ\EKZ\X64\DEBUG\VC141.PDB
C:\USERS\171-362\SOURCE\REPOS\EKZ\EKZ\X64\DEBUG\VC141.IDB
C:\USERS\171-362\SOURCE\REPOS\EKZ\EKZ\X64\DEBUG\EKZ.OBJ
